{
	"kind": "pagespeedonline#result",
	"id": "http://projects.alanev.ru/apc/",
	"responseCode": 200,
	"title": "APC",
	"score": 96,
	"pageStats": {
		"numberResources": 25,
		"numberHosts": 3,
		"totalRequestBytes": "1257",
		"numberStaticResources": 23,
		"htmlResponseBytes": "84591",
		"imageResponseBytes": "891108",
		"javascriptResponseBytes": "168186",
		"otherResponseBytes": "477",
		"numberJsResources": 3
	},
	"formattedResults": {
		"locale": "ru",
		"ruleResults": {
			"AvoidLandingPageRedirects": {
				"localizedRuleName": "Не используйте переадресацию с целевой страницы",
				"ruleImpact": 0,
				"urlBlocks": [
					{
						"header": {
							"format": "На вашей странице нет переадресаций. Подробнее о том, как избегать переадресаций на целевых страницах.",
							"args": [
								{
									"type": "HYPERLINK",
									"value": "https://developers.google.com/speed/docs/insights/AvoidRedirects"
								}
							]
						}
					}
				]
			},
			"EnableGzipCompression": {
				"localizedRuleName": "Включите сжатие",
				"ruleImpact": 0,
				"urlBlocks": [
					{
						"header": {
							"format": "Сжатие включено. Подробнее о том, как включить сжатие.",
							"args": [
								{
									"type": "HYPERLINK",
									"value": "https://developers.google.com/speed/docs/insights/EnableCompression"
								}
							]
						}
					}
				]
			},
			"LeverageBrowserCaching": {
				"localizedRuleName": "Используйте кеш браузера",
				"ruleImpact": 0,
				"urlBlocks": [
					{
						"header": {
							"format": "Кеширование в браузере включено. Подробнее о том, как использовать кеширование в браузере.",
							"args": [
								{
									"type": "HYPERLINK",
									"value": "https://developers.google.com/speed/docs/insights/LeverageBrowserCaching"
								}
							]
						}
					}
				]
			},
			"MainResourceServerResponseTime": {
				"localizedRuleName": "Сократите время ответа сервера",
				"ruleImpact": 0,
				"urlBlocks": [
					{
						"header": {
							"format": "Ваш сервер ответил быстро. Подробнее о том, как сократить время ответа сервера.",
							"args": [
								{
									"type": "HYPERLINK",
									"value": "https://developers.google.com/speed/docs/insights/Server"
								}
							]
						}
					}
				]
			},
			"MinifyCss": {
				"localizedRuleName": "Сократите CSS",
				"ruleImpact": 0,
				"urlBlocks": [
					{
						"header": {
							"format": "Код CSS сокращен. Подробнее о том, как сокращать код CSS.",
							"args": [
								{
									"type": "HYPERLINK",
									"value": "https://developers.google.com/speed/docs/insights/MinifyResources"
								}
							]
						}
					}
				]
			},
			"MinifyHTML": {
				"localizedRuleName": "Сократите HTML",
				"ruleImpact": 0,
				"urlBlocks": [
					{
						"header": {
							"format": "HTML-код сокращен. Подробнее о том, как сокращать HTML-код.",
							"args": [
								{
									"type": "HYPERLINK",
									"value": "https://developers.google.com/speed/docs/insights/MinifyResources"
								}
							]
						}
					}
				]
			},
			"MinifyJavaScript": {
				"localizedRuleName": "Сократите JavaScript",
				"ruleImpact": 0.9209,
				"urlBlocks": [
					{
						"header": {
							"format": "Сжатие кода JavaScript позволяет сократить объем данных, чтобы ускорить загрузку, обработку и выполнение."
						}
					},
					{
						"header": {
							"format": "Сократите код JavaScript на следующих ресурсах, чтобы уменьшить их размер на $2 ($3).",
							"args": [
								{
									"type": "HYPERLINK",
									"value": "https://developers.google.com/speed/docs/insights/MinifyResources"
								},
								{
									"type": "BYTES",
									"value": "8,9 КБ"
								},
								{
									"type": "PERCENTAGE",
									"value": "72 %"
								}
							]
						},
						"urls": [
							{
								"result": {
									"format": "Сокращение $1 позволит уменьшить размер на $2 ($3) после сжатия.",
									"args": [
										{
											"type": "URL",
											"value": "http://projects.alanev.ru/apc/modernizr.js"
										},
										{
											"type": "BYTES",
											"value": "8,9 КБ"
										},
										{
											"type": "PERCENTAGE",
											"value": "72 %"
										}
									]
								}
							}
						]
					}
				]
			},
			"MinimizeRenderBlockingResources": {
				"localizedRuleName": "Удалите из верхней части страницы код JavaScript и CSS, блокирующий отображение",
				"ruleImpact": 2,
				"urlBlocks": [
					{
						"header": {
							"format": "Количество блокирующих скриптов на странице: $1. Они замедляют отображение контента.",
							"args": [
								{
									"type": "INT_LITERAL",
									"value": "1"
								}
							]
						}
					},
					{
						"header": {
							"format": "Все содержание верхней части страницы отображается только после загрузки указанных далее ресурсов. Попробуйте отложить загрузку этих ресурсов, загружать их асинхронно или встроить их самые важные компоненты непосредственно в код HTML."
						}
					},
					{
						"header": {
							"format": "Удалите код JavaScript, препятствующий отображению:",
							"args": [
								{
									"type": "HYPERLINK",
									"value": "https://developers.google.com/speed/docs/insights/BlockingJS"
								}
							]
						},
						"urls": [
							{
								"result": {
									"format": "$1",
									"args": [
										{
											"type": "URL",
											"value": "http://projects.alanev.ru/apc/modernizr.js"
										}
									]
								}
							}
						]
					}
				]
			},
			"OptimizeImages": {
				"localizedRuleName": "Оптимизируйте изображения",
				"ruleImpact": 0,
				"urlBlocks": [
					{
						"header": {
							"format": "Изображения оптимизированы. Подробнее о том, как оптимизировать изображения.",
							"args": [
								{
									"type": "HYPERLINK",
									"value": "https://developers.google.com/speed/docs/insights/OptimizeImages"
								}
							]
						}
					}
				]
			},
			"PrioritizeVisibleContent": {
				"localizedRuleName": "Оптимизируйте видимое содержание",
				"ruleImpact": 0,
				"urlBlocks": [
					{
						"header": {
							"format": "Содержание верхней части страницы оптимизировано для быстрого отображения. Подробнее о том, как обеспечить быстрое отображение видимой части страницы.",
							"args": [
								{
									"type": "HYPERLINK",
									"value": "https://developers.google.com/speed/docs/insights/PrioritizeVisibleContent"
								}
							]
						}
					}
				]
			}
		}
	},
	"version": {
		"major": 1,
		"minor": 15
	}
}